{"_id":{"$oid":"5e2ae381f1804b3d748ccf1e"},"fullname":"Admin","username":"admin@infostretch.com","password":"admin","__v":{"$numberInt":"0"},"resetToken":"10100d20a4bd31027fa053e262766b1461de46bbc0e796dfe3b88959a40f3955","resetTokenExpiration":{"$date":{"$numberLong":"1580306413118"}}}
{"_id":{"$oid":"5e2eb4204f74e74ecc49d35d"},"fullname":"Christina Yang","username":"yang@infostretch.com","password":"aaa","__v":{"$numberInt":"0"}}
{"_id":{"$oid":"5e2ee373bf5613341ceb9b5b"},"fullname":"Shruti Nair","username":"shruti.nair@infostretch.com","password":"$2a$12$nqOh2G/HR1JnPrF1pGSPiOh30xjEgRGCuqdJMyaRcc9ssS2z.FlRO","__v":{"$numberInt":"0"},"resetToken":"a91e1ed6da3bf4a1a5b6f7899150ad6939109a53e835718de626cdd4f92dc921","resetTokenExpiration":{"$date":{"$numberLong":"1580801999855"}}}
{"_id":{"$oid":"5e2ee409bf5613341ceb9b5c"},"fullname":"Aishwarya Sonawane","username":"aishwarya.sonawane@infostretch.com","password":"aaa","__v":{"$numberInt":"0"}}
{"_id":{"$oid":"5e386d03f5d6a81c34e400e7"},"fullname":"Jinu Joy","username":"jinujoy2707@gmail.com","password":"$2a$12$.fpE7Z1v7JaAkOIe4B5E/e2jA3jkwsm.3b/LmoYUPQxus8Y.wOGNK","__v":{"$numberInt":"0"},"resetToken":"34c1bf33c0b3b4f3a67efc96efb784abbfc1a31ee9afd09e6a43cf431e9a0313","resetTokenExpiration":{"$date":{"$numberLong":"1580760386485"}}}
